{
  "project_info": {
    "project_number": "800873928626",
    "firebase_url": "https://dtladrive-300623-default-rtdb.firebaseio.com",
    "project_id": "dtladrive-300623",
    "storage_bucket": "dtladrive-300623.appspot.com"
  },
  "client": [
    {
      "client_info": {
        "mobilesdk_app_id": "1:800873928626:android:5634f637c6ea5c7e13b6ab",
        "android_client_info": {
          "package_name": "com.dtlataxi.partner"
        }
      },
      "oauth_client": [
        {
          "client_id": "800873928626-po7792vd7lipglcnm5lqk9hm38vqhb8t.apps.googleusercontent.com",
          "client_type": 1,
          "android_info": {
            "package_name": "com.dtlataxi.partner",
            "certificate_hash": "378d10a03b47737bfb0aff15c7e715a5fea2c64c"
          }
        },
        {
          "client_id": "800873928626-qbf94j3gqhj29hqami8us4lgdp99m2s6.apps.googleusercontent.com",
          "client_type": 1,
          "android_info": {
            "package_name": "com.dtlataxi.partner",
            "certificate_hash": "bc03d673804709469dff92eb7600f7778c257eed"
          }
        },
        {
          "client_id": "800873928626-gvtlbgvhquvc855i3p9d8n28ocq7rgdm.apps.googleusercontent.com",
          "client_type": 3
        }
      ],
      "api_key": [
        {
          "current_key": "AIzaSyAYFhFG3MGlB9k7gz1zRe4Y7QN-qQXZKHU"
        }
      ],
      "services": {
        "appinvite_service": {
          "other_platform_oauth_client": [
            {
              "client_id": "800873928626-gvtlbgvhquvc855i3p9d8n28ocq7rgdm.apps.googleusercontent.com",
              "client_type": 3
            }
          ]
        }
      }
    },
    {
      "client_info": {
        "mobilesdk_app_id": "1:800873928626:android:e50e266d9f7630ef13b6ab",
        "android_client_info": {
          "package_name": "com.dtlataxi.user"
        }
      },
      "oauth_client": [
        {
          "client_id": "800873928626-5voguo85m8sji7mhg21qjuhtbf9bnjfv.apps.googleusercontent.com",
          "client_type": 1,
          "android_info": {
            "package_name": "com.dtlataxi.user",
            "certificate_hash": "b987223b6dd6cacc62c0e41f67a8b5419f1b11ce"
          }
        },
        {
          "client_id": "800873928626-duv7o4a2c3n5udkpo0nkam7kfmf3rhq6.apps.googleusercontent.com",
          "client_type": 1,
          "android_info": {
            "package_name": "com.dtlataxi.user",
            "certificate_hash": "378d10a03b47737bfb0aff15c7e715a5fea2c64c"
          }
        },
        {
          "client_id": "800873928626-gvtlbgvhquvc855i3p9d8n28ocq7rgdm.apps.googleusercontent.com",
          "client_type": 3
        }
      ],
      "api_key": [
        {
          "current_key": "AIzaSyAYFhFG3MGlB9k7gz1zRe4Y7QN-qQXZKHU"
        }
      ],
      "services": {
        "appinvite_service": {
          "other_platform_oauth_client": [
            {
              "client_id": "800873928626-gvtlbgvhquvc855i3p9d8n28ocq7rgdm.apps.googleusercontent.com",
              "client_type": 3
            }
          ]
        }
      }
    }
  ],
  "configuration_version": "1"
}